Jeff’s 🗺 Adventures - Take-home Exercise 3
…
mys_sf <- mys_sf %>%
          filter(ADM1_EN != 'W.P. Labuan' & ADM1_EN != 'Sabah' & ADM1_EN != 'Sarawak') %>%
          mutate(ADM1_EN = replace(ADM1_EN, ADM1_EN == 'W.P. Kuala Lumpur', 'Kuala Lumpur'),
                 ADM1_EN = replace(ADM1_EN, ADM1_EN == 'W.P. Putrajaya', 'Selangor'), 
                 ADM1_EN = toupper(ADM1_EN),
                 ADM2_EN = toupper(ADM2_EN))

mys_sf

Simple feature collection with 87 features and 14 fields
Geometry type: MULTIPOLYGON
Dimension:     XY
Bounding box:  xmin: 9189.014 ymin: 6951.581 xmax: 36220.34 ymax: 37014.28
Projected CRS: Kertau (RSO) / RSO Malaya (ch)
# A tibble: 87 × 15
   ADM2_EN  ADM2_PCODE ADM2_REF ADM2ALT1EN ADM2ALT2EN ADM1_EN ADM1_PCODE ADM0_EN
 * <chr>    <chr>      <chr>    <chr>      <chr>      <chr>   <chr>      <chr>  
 1 BATU PA… MY0101     <NA>     <NA>       <NA>       JOHOR   MY01       Malays…
 2 JOHOR B… MY0102     <NA>     <NA>       <NA>       JOHOR   MY01       Malays…
 3 KLUANG   MY0103     <NA>     <NA>       <NA>       JOHOR   MY01       Malays…
 4 KOTA TI… MY0104     <NA>     <NA>       <NA>       JOHOR   MY01       Malays…
 5 KULAIJA… MY0105     <NA>     <NA>       <NA>       JOHOR   MY01       Malays…
 6 LEDANG   MY0106     <NA>     <NA>       <NA>       JOHOR   MY01       Malays…
 7 MERSING  MY0107     <NA>     <NA>       <NA>       JOHOR   MY01       Malays…
 8 MUAR     MY0108     <NA>     <NA>       <NA>       JOHOR   MY01       Malays…
 9 PONTIAN  MY0109     <NA>     <NA>       <NA>       JOHOR   MY01       Malays…
10 SEGAMAT  MY0110     <NA>     <NA>       <NA>       JOHOR   MY01       Malays…
# ℹ 77 more rows
# ℹ 7 more variables: ADM0_PCODE <chr>, date <date>, validOn <date>,
#   validTo <date>, Shape_Leng <dbl>, Shape_Area <dbl>, geometry <MULTIPOLYGON>

crime_df <- crime_df %>%
              filter(state != 'Malaysia' & state != 'Sabah' & state != 'Sarawak' & district != 'All') %>%
              mutate(year = year(date),
                     state = replace(state, state == 'W.P. Kuala Lumpur', 'Kuala Lumpur'),
                     state = toupper(state),
                     district = toupper(district))
crime_df

# A tibble: 12,096 × 7
   state district   category type           date       crimes  year
   <chr> <chr>      <chr>    <chr>          <date>      <dbl> <dbl>
 1 JOHOR BATU PAHAT assault  all            2016-01-01    160  2016
 2 JOHOR BATU PAHAT assault  all            2017-01-01    123  2017
 3 JOHOR BATU PAHAT assault  all            2018-01-01    104  2018
 4 JOHOR BATU PAHAT assault  all            2019-01-01    139  2019
 5 JOHOR BATU PAHAT assault  all            2020-01-01    127  2020
 6 JOHOR BATU PAHAT assault  all            2021-01-01     60  2021
 7 JOHOR BATU PAHAT assault  all            2022-01-01     52  2022
 8 JOHOR BATU PAHAT assault  all            2023-01-01     88  2023
 9 JOHOR BATU PAHAT assault  causing_injury 2016-01-01     39  2016
10 JOHOR BATU PAHAT assault  causing_injury 2017-01-01     41  2017
# ℹ 12,086 more rows
…
crime_df_mys <- st_as_sf(crime_df_mys)
st_crs(crime_df_mys) <- st_crs(mys_sf)

crime_df_mys

Simple feature collection with 87 features and 8 fields
Geometry type: MULTIPOLYGON
Dimension:     XY
Bounding box:  xmin: 9189.014 ymin: 6951.581 xmax: 36220.34 ymax: 37014.28
Projected CRS: Kertau (RSO) / RSO Malaya (ch)
# A tibble: 87 × 9
   ADM1_EN ADM2_EN     category type  crimes  year Shape_Leng Shape_Area
 * <chr>   <chr>       <chr>    <chr>  <dbl> <dbl>      <dbl>      <dbl>
 1 JOHOR   BATU PAHAT  <NA>     <NA>      NA    NA       1.86     0.161 
 2 JOHOR   JOHOR BAHRU <NA>     <NA>      NA    NA       1.83     0.0802
 3 JOHOR   KLUANG      <NA>     <NA>      NA    NA       2.36     0.234 
 4 JOHOR   KOTA TINGGI <NA>     <NA>      NA    NA       3.15     0.278 
 5 JOHOR   KULAIJAYA   <NA>     <NA>      NA    NA       1.07     0.0615
 6 JOHOR   LEDANG      <NA>     <NA>      NA    NA       1.40     0.0775
 7 JOHOR   MERSING     <NA>     <NA>      NA    NA       5.39     0.243 
 8 JOHOR   MUAR        <NA>     <NA>      NA    NA       1.62     0.113 
 9 JOHOR   PONTIAN     <NA>     <NA>      NA    NA       1.61     0.0739
10 JOHOR   SEGAMAT     <NA>     <NA>      NA    NA       2.59     0.234 
# ℹ 77 more rows
# ℹ 1 more variable: geometry <MULTIPOLYGON>
…
