Jeff’s 🗺 Adventures - Take-home Exercise 1
…
3.3.3 Adding Quarter and Saving RDS

acled_sf <- acled_sf %>%
  mutate(quarter = quarter(event_date, with_year = TRUE)) %>%
  mutate(year = year(event_date)) %>%
  dplyr::select(-admin1)

acled_sf

Simple feature collection with 51553 features and 7 fields
Geometry type: POINT
Dimension:     XY
Bounding box:  xmin: -208804.4 ymin: 1103500 xmax: 640934.5 ymax: 3042960
Projected CRS: WGS 84 / UTM zone 47N
# A tibble: 51,553 × 8
   event_date event_type     fatalities state district            geometry
   <date>     <chr>               <dbl> <chr> <chr>            <POINT [m]>
 1 2023-12-31 Explosions/Re…          0 Mon   Mawlamy…  (393190.2 1690159)
 2 2023-12-31 Explosions/Re…          0 Rakh… Maungdaw (-183852.6 2305258)
 3 2023-12-31 Battles                 4 Bago… Thayarw…    (165427 2062239)
 4 2023-12-31 Strategic dev…          0 Bago… Thayarw…    (165427 2062239)
 5 2023-12-31 Explosions/Re…          1 Saga… Katha     (202852.5 2640880)
 6 2023-12-31 Battles                 0 Shan… Muse      (391530.9 2594611)
 7 2023-12-31 Explosions/Re…          0 Mon   Mawlamy…  (391095.1 1692216)
 8 2023-12-31 Battles                 1 Saga… Monywa    (115044.9 2432742)
 9 2023-12-31 Violence agai…          1 Saga… Kanbalu   (153264.2 2542964)
10 2023-12-31 Violence agai…          1 Mon   Thaton    (335571.8 1837874)
# ℹ 51,543 more rows
# ℹ 2 more variables: quarter <dbl>, year <dbl>
…
